\relax 
\providecommand\hyper@newdestlabel[2]{}
\providecommand\HyperFirstAtBeginDocument{\AtBeginDocument}
\HyperFirstAtBeginDocument{\ifx\hyper@anchor\@undefined
\global\let\oldcontentsline\contentsline
\gdef\contentsline#1#2#3#4{\oldcontentsline{#1}{#2}{#3}}
\global\let\oldnewlabel\newlabel
\gdef\newlabel#1#2{\newlabelxx{#1}#2}
\gdef\newlabelxx#1#2#3#4#5#6{\oldnewlabel{#1}{{#2}{#3}}}
\AtEndDocument{\ifx\hyper@anchor\@undefined
\let\contentsline\oldcontentsline
\let\newlabel\oldnewlabel
\fi}
\fi}
\global\let\hyper@last\relax 
\gdef\HyperFirstAtBeginDocument#1{#1}
\providecommand\HyField@AuxAddToFields[1]{}
\providecommand\HyField@AuxAddToCoFields[2]{}
\citation{Stenger2012}
\citation{Brule2014,Colombi2016}
\citation{Li2009,Kaina2015}
\citation{Mousavi2015,Yu2018}
\citation{Khelif2004}
\babel@aux{english}{}
\@writefile{toc}{\contentsline {section}{\numberline {1}Introduction}{1}{section.1}\protected@file@percent }
\citation{Hussein2009,Krattiger2018}
\citation{Khelif2004,Stenger2012,Mousavi2015}
\citation{Pham2013,Sridhar2016,Liu2017,Liu2018,Roca2018,Roca2019}
\citation{Boutin1993,Fish2002,Hui2014,Hui2015,Hu2017a,Hu2018,Hu2019}
\citation{Hu2017a,Hu2018,Hu2019}
\citation{Willis1997,Milton2007,Nemat-Nasser2011,Nassar2016a,Sridhar2018,Meng2018}
\citation{Hou1997,Casadei2013,Casadei2016}
\citation{Fish2010,Fafalis2015,Filonova2016}
\citation{Hughes1998}
\citation{Oberai1998}
\citation{Arbogast2002}
\citation{Asokan2006,Ganapathysubramanian2007}
\citation{Oskay2012,Zhang2015,Zhang2016,Zhang2017}
\citation{Oskay2012}
\citation{Craig1968}
\citation{Castanier2001}
\@writefile{toc}{\contentsline {section}{\numberline {2}Variational multiscale model for wave propagation}{4}{section.2}\protected@file@percent }
\newlabel{momentum balance equation}{{1}{4}{Variational multiscale model for wave propagation}{equation.2.1}{}}
\newlabel{elastic constitutive relation}{{2}{4}{Variational multiscale model for wave propagation}{equation.2.2}{}}
\newlabel{infinitesimal strain}{{3}{4}{Variational multiscale model for wave propagation}{equation.2.3}{}}
\newlabel{boundary condition for problem}{{4}{4}{Variational multiscale model for wave propagation}{equation.2.4b}{}}
\newlabel{variational form}{{5}{4}{Variational multiscale model for wave propagation}{equation.2.5}{}}
\citation{Hughes1998}
\citation{Arbogast2002}
\@writefile{lof}{\contentsline {figure}{\numberline {1}{\ignorespaces \relax \fontsize  {10.95}{13.6}\selectfont  \abovedisplayskip 11\p@ plus3\p@ minus6\p@ \abovedisplayshortskip \z@ plus3\p@ \belowdisplayshortskip 6.5\p@ plus3.5\p@ minus3\p@ \def \leftmargin \leftmargini \parsep 5\p@ plus2.5\p@ minus\p@ \topsep 10\p@ plus4\p@ minus6\p@ \itemsep 5\p@ plus2.5\p@ minus\p@ {\leftmargin \leftmargini \topsep 9\p@ plus3\p@ minus5\p@ \parsep 4.5\p@ plus2\p@ minus\p@ \itemsep \parsep }\belowdisplayskip \abovedisplayskip The two-scale problem setting for wave propagation in periodic composites. (a) Composite domain discretized using coarse mesh. (b) One coarse-scale element. (c) The associated fine-scale mesh.\relax }}{5}{figure.caption.1}\protected@file@percent }
\providecommand*\caption@xref[2]{\@setref\relax\@undefined{#1}}
\newlabel{DomainDecomposition}{{1}{5}{\small The two-scale problem setting for wave propagation in periodic composites. (a) Composite domain discretized using coarse mesh. (b) One coarse-scale element. (c) The associated fine-scale mesh.\relax }{figure.caption.1}{}}
\newlabel{solution space}{{6}{5}{Variational multiscale model for wave propagation}{equation.2.6}{}}
\newlabel{displacement decomposition}{{7}{5}{Variational multiscale model for wave propagation}{equation.2.7}{}}
\citation{Hughes1998}
\citation{Masud2004,Masud2006,Oskay2012,Zhang2016}
\citation{Oskay2013,Zhang2015}
\citation{Truster2014}
\citation{Garikipati2000}
\newlabel{weighting function decomposition}{{8}{6}{Variational multiscale model for wave propagation}{equation.2.8}{}}
\newlabel{fine-scale solution space}{{9}{6}{Variational multiscale model for wave propagation}{equation.2.9}{}}
\newlabel{coarse-scale solution space}{{10}{6}{Variational multiscale model for wave propagation}{equation.2.10}{}}
\citation{Zhang2015,Zhang2016}
\citation{Deraemaeker1999}
\citation{Thompson1994,Babuska1990,Ihlenburg1995,Ihlenburg1995a,Ihlenburg1997}
\newlabel{coarse-scale variational form}{{11}{7}{Variational multiscale model for wave propagation}{equation.2.11}{}}
\newlabel{fine-scale variational form}{{12}{7}{Variational multiscale model for wave propagation}{equation.2.12}{}}
\@writefile{toc}{\contentsline {section}{\numberline {3}Spectral variational multiscale model}{7}{section.3}\protected@file@percent }
\newlabel{Multiscale system evaluation}{{3}{7}{Spectral variational multiscale model}{section.3}{}}
\citation{Rathod2000,Rathod2001}
\citation{Rathod2000}
\citation{Garikipati1998,Oskay2013}
\@writefile{lof}{\contentsline {figure}{\numberline {2}{\ignorespaces \relax \fontsize  {10.95}{13.6}\selectfont  \abovedisplayskip 11\p@ plus3\p@ minus6\p@ \abovedisplayshortskip \z@ plus3\p@ \belowdisplayshortskip 6.5\p@ plus3.5\p@ minus3\p@ \def \leftmargin \leftmargini \parsep 5\p@ plus2.5\p@ minus\p@ \topsep 10\p@ plus4\p@ minus6\p@ \itemsep 5\p@ plus2.5\p@ minus\p@ {\leftmargin \leftmargini \topsep 9\p@ plus3\p@ minus5\p@ \parsep 4.5\p@ plus2\p@ minus\p@ \itemsep \parsep }\belowdisplayskip \abovedisplayskip Quadrilateral serendipity elements of (a) cubic ($3^{rd}$), (b) quintic ($5^{th}$) and (c) septic ($7^{th}$) orders. \relax }}{8}{figure.caption.2}\protected@file@percent }
\newlabel{SerendipityElement}{{2}{8}{\small Quadrilateral serendipity elements of (a) cubic ($3^{rd}$), (b) quintic ($5^{th}$) and (c) septic ($7^{th}$) orders. \relax }{figure.caption.2}{}}
\citation{Fish2007}
\citation{Fish2007}
\newlabel{coarse-scale FE}{{13}{9}{Spectral variational multiscale model}{equation.3.13}{}}
\newlabel{coarse FEM approximation}{{13a}{9}{Spectral variational multiscale model}{equation.3.13a}{}}
\newlabel{coarse strain approximation}{{13b}{9}{Spectral variational multiscale model}{equation.3.13b}{}}
\newlabel{fine-scale FE}{{14}{9}{Spectral variational multiscale model}{equation.3.14}{}}
\newlabel{fine FEM approximation}{{14a}{9}{Spectral variational multiscale model}{equation.3.14a}{}}
\newlabel{fine strain approximation}{{14b}{9}{Spectral variational multiscale model}{equation.3.14b}{}}
\newlabel{system of equations in matrix form}{{15}{9}{Spectral variational multiscale model}{equation.3.15b}{}}
\newlabel{global matrices}{{16}{10}{Spectral variational multiscale model}{equation.3.16}{}}
\newlabel{fine-scale global matrices}{{16a}{10}{Spectral variational multiscale model}{equation.3.16a}{}}
\newlabel{coarse-scale global matrices}{{16b}{10}{Spectral variational multiscale model}{equation.3.16b}{}}
\newlabel{coarse-fine global matrices}{{16c}{10}{Spectral variational multiscale model}{equation.3.16c}{}}
\newlabel{global force vector}{{16d}{10}{Spectral variational multiscale model}{equation.3.16d}{}}
\newlabel{element matrices}{{17}{10}{Spectral variational multiscale model}{equation.3.17}{}}
\newlabel{coarse-scale element matrices}{{17a}{10}{Spectral variational multiscale model}{equation.3.17a}{}}
\newlabel{fine-scale element matrices}{{17b}{10}{Spectral variational multiscale model}{equation.3.17b}{}}
\newlabel{coarse-fine element matrices}{{17c}{10}{Spectral variational multiscale model}{equation.3.17c}{}}
\newlabel{force vector}{{17d}{10}{Spectral variational multiscale model}{equation.3.17d}{}}
\newlabel{global displacement vector}{{18}{10}{Spectral variational multiscale model}{equation.3.18}{}}
\citation{Craig1968}
\citation{Castanier2001}
\newlabel{global stiffness matrix}{{19}{11}{Spectral variational multiscale model}{equation.3.19}{}}
\newlabel{global system of equations}{{20}{11}{Spectral variational multiscale model}{equation.3.20}{}}
\@writefile{toc}{\contentsline {section}{\numberline {4}Phase mode synthesis for basis reduction at fine scale}{11}{section.4}\protected@file@percent }
\citation{Ma2016,Maldovan2013}
\citation{Craig1968}
\newlabel{matrix rearrange}{{21}{12}{Phase mode synthesis for basis reduction at fine scale}{equation.4.21}{}}
\@writefile{lof}{\contentsline {figure}{\numberline {3}{\ignorespaces \relax \fontsize  {10.95}{13.6}\selectfont  \abovedisplayskip 11\p@ plus3\p@ minus6\p@ \abovedisplayshortskip \z@ plus3\p@ \belowdisplayshortskip 6.5\p@ plus3.5\p@ minus3\p@ \def \leftmargin \leftmargini \parsep 5\p@ plus2.5\p@ minus\p@ \topsep 10\p@ plus4\p@ minus6\p@ \itemsep 5\p@ plus2.5\p@ minus\p@ {\leftmargin \leftmargini \topsep 9\p@ plus3\p@ minus5\p@ \parsep 4.5\p@ plus2\p@ minus\p@ \itemsep \parsep }\belowdisplayskip \abovedisplayskip Material-phase-based mode synthesis strategy.\relax }}{13}{figure.caption.3}\protected@file@percent }
\newlabel{ModalAnalysis}{{3}{13}{\small Material-phase-based mode synthesis strategy.\relax }{figure.caption.3}{}}
\newlabel{phase modes}{{22}{13}{Phase mode synthesis for basis reduction at fine scale}{equation.4.22}{}}
\citation{Castanier2001}
\newlabel{constraint modes}{{23}{14}{Phase mode synthesis for basis reduction at fine scale}{equation.4.23}{}}
\newlabel{phase modal transformation}{{24}{14}{Phase mode synthesis for basis reduction at fine scale}{equation.4.24}{}}
\newlabel{reduced matrix 1}{{25}{14}{Phase mode synthesis for basis reduction at fine scale}{equation.4.25b}{}}
\newlabel{interface modes}{{26}{14}{Phase mode synthesis for basis reduction at fine scale}{equation.4.26}{}}
\newlabel{interface modal transformation}{{27}{15}{Phase mode synthesis for basis reduction at fine scale}{equation.4.27}{}}
\newlabel{reduced matrix 2}{{28}{15}{Phase mode synthesis for basis reduction at fine scale}{equation.4.28b}{}}
\newlabel{reduced interaction matrix}{{29}{15}{Phase mode synthesis for basis reduction at fine scale}{equation.4.29b}{}}
\newlabel{reduced system of equations in matrix form}{{30}{15}{Phase mode synthesis for basis reduction at fine scale}{equation.4.30b}{}}
\newlabel{nodal DOFs}{{31}{15}{Phase mode synthesis for basis reduction at fine scale}{equation.4.31}{}}
\newlabel{unit cell modes}{{32}{16}{Phase mode synthesis for basis reduction at fine scale}{equation.4.32}{}}
\@writefile{toc}{\contentsline {section}{\numberline {5}Implementation details}{16}{section.5}\protected@file@percent }
\@writefile{toc}{\contentsline {subsection}{\numberline {5.1}Multiscale discretization}{16}{subsection.5.1}\protected@file@percent }
\@writefile{toc}{\contentsline {subsection}{\numberline {5.2}Element matrices}{17}{subsection.5.2}\protected@file@percent }
\newlabel{Elemental matrices evaluation}{{5.2}{17}{Element matrices}{subsection.5.2}{}}
\newlabel{fine-scale gaussian integration}{{33}{17}{Element matrices}{equation.5.33}{}}
\newlabel{coarse-scale stiffness matrix discretized}{{34}{17}{Element matrices}{equation.5.34}{}}
\citation{Lautersztajn1997,Lautersztajn1998}
\citation{Yuan1994}
\citation{Craig1968,Castanier2001,Krattiger2018}
\@writefile{lof}{\contentsline {figure}{\numberline {4}{\ignorespaces \relax \fontsize  {10.95}{13.6}\selectfont  \abovedisplayskip 11\p@ plus3\p@ minus6\p@ \abovedisplayshortskip \z@ plus3\p@ \belowdisplayshortskip 6.5\p@ plus3.5\p@ minus3\p@ \def \leftmargin \leftmargini \parsep 5\p@ plus2.5\p@ minus\p@ \topsep 10\p@ plus4\p@ minus6\p@ \itemsep 5\p@ plus2.5\p@ minus\p@ {\leftmargin \leftmargini \topsep 9\p@ plus3\p@ minus5\p@ \parsep 4.5\p@ plus2\p@ minus\p@ \itemsep \parsep }\belowdisplayskip \abovedisplayskip The two-scale element mapping relationship. \relax }}{18}{figure.caption.4}\protected@file@percent }
\newlabel{Mapping}{{4}{18}{\small The two-scale element mapping relationship. \relax }{figure.caption.4}{}}
\newlabel{inverse mapping}{{35}{18}{Element matrices}{equation.5.35}{}}
\citation{Castanier2001,Hong2013}
\citation{Hughes2000}
\citation{Goudreau1973}
\@writefile{toc}{\contentsline {subsection}{\numberline {5.3}Normal mode selection}{19}{subsection.5.3}\protected@file@percent }
\newlabel{Normal mode selection}{{5.3}{19}{Normal mode selection}{subsection.5.3}{}}
\citation{Liu2000}
\citation{Pham2013}
\citation{Liu2000}
\@writefile{toc}{\contentsline {subsection}{\numberline {5.4}Time integration}{20}{subsection.5.4}\protected@file@percent }
\@writefile{toc}{\contentsline {section}{\numberline {6}Model verification}{20}{section.6}\protected@file@percent }
\citation{Pham2013}
\@writefile{lot}{\contentsline {table}{\numberline {1}{\ignorespaces Material properties used in simulations.\relax }}{21}{table.caption.5}\protected@file@percent }
\newlabel{Material properties used in simulations}{{1}{21}{Material properties used in simulations.\relax }{table.caption.5}{}}
\@writefile{toc}{\contentsline {subsection}{\numberline {6.1}Spectral variational multiscale model}{21}{subsection.6.1}\protected@file@percent }
\newlabel{Quasi-2D simulations}{{6.1}{21}{Spectral variational multiscale model}{subsection.6.1}{}}
\@writefile{lof}{\contentsline {figure}{\numberline {5}{\ignorespaces \relax \fontsize  {10.95}{13.6}\selectfont  \abovedisplayskip 11\p@ plus3\p@ minus6\p@ \abovedisplayshortskip \z@ plus3\p@ \belowdisplayshortskip 6.5\p@ plus3.5\p@ minus3\p@ \def \leftmargin \leftmargini \parsep 5\p@ plus2.5\p@ minus\p@ \topsep 10\p@ plus4\p@ minus6\p@ \itemsep 5\p@ plus2.5\p@ minus\p@ {\leftmargin \leftmargini \topsep 9\p@ plus3\p@ minus5\p@ \parsep 4.5\p@ plus2\p@ minus\p@ \itemsep \parsep }\belowdisplayskip \abovedisplayskip (a) Acoustic metamaterial and phononic crystal unit cells. (b) Composite structure and boundary conditions. \relax }}{22}{figure.caption.6}\protected@file@percent }
\newlabel{Quasi-2D simulation setup}{{5}{22}{\small (a) Acoustic metamaterial and phononic crystal unit cells. (b) Composite structure and boundary conditions. \relax }{figure.caption.6}{}}
\@writefile{toc}{\contentsline {subsubsection}{\numberline {6.1.1}Accuracy of SVM at various wave frequencies}{22}{subsubsection.6.1.1}\protected@file@percent }
\citation{Liu2000}
\@writefile{lof}{\contentsline {figure}{\numberline {6}{\ignorespaces \relax \fontsize  {10.95}{13.6}\selectfont  \abovedisplayskip 11\p@ plus3\p@ minus6\p@ \abovedisplayshortskip \z@ plus3\p@ \belowdisplayshortskip 6.5\p@ plus3.5\p@ minus3\p@ \def \leftmargin \leftmargini \parsep 5\p@ plus2.5\p@ minus\p@ \topsep 10\p@ plus4\p@ minus6\p@ \itemsep 5\p@ plus2.5\p@ minus\p@ {\leftmargin \leftmargini \topsep 9\p@ plus3\p@ minus5\p@ \parsep 4.5\p@ plus2\p@ minus\p@ \itemsep \parsep }\belowdisplayskip \abovedisplayskip Velocity profiles as predicted by SVM and reference simulations along the bottom edge of the PC structure at $t=T$: (a) 10 and 50 kHz, (b) 100 and 140 kHz.\relax }}{23}{figure.caption.7}\protected@file@percent }
\newlabel{DispOverlinePhono}{{6}{23}{\small Velocity profiles as predicted by SVM and reference simulations along the bottom edge of the PC structure at $t=T$: (a) 10 and 50 kHz, (b) 100 and 140 kHz.\relax }{figure.caption.7}{}}
\@writefile{lof}{\contentsline {figure}{\numberline {7}{\ignorespaces \relax \fontsize  {10.95}{13.6}\selectfont  \abovedisplayskip 11\p@ plus3\p@ minus6\p@ \abovedisplayshortskip \z@ plus3\p@ \belowdisplayshortskip 6.5\p@ plus3.5\p@ minus3\p@ \def \leftmargin \leftmargini \parsep 5\p@ plus2.5\p@ minus\p@ \topsep 10\p@ plus4\p@ minus6\p@ \itemsep 5\p@ plus2.5\p@ minus\p@ {\leftmargin \leftmargini \topsep 9\p@ plus3\p@ minus5\p@ \parsep 4.5\p@ plus2\p@ minus\p@ \itemsep \parsep }\belowdisplayskip \abovedisplayskip Velocity contours of the PC structure as predicted by SVM and reference simulations at $t=T$.\relax }}{24}{figure.caption.8}\protected@file@percent }
\newlabel{PC_Bar}{{7}{24}{\small Velocity contours of the PC structure as predicted by SVM and reference simulations at $t=T$.\relax }{figure.caption.8}{}}
\@writefile{toc}{\contentsline {subsubsection}{\numberline {6.1.2}Parametric study for accuracy assessment}{24}{subsubsection.6.1.2}\protected@file@percent }
\@writefile{lof}{\contentsline {figure}{\numberline {8}{\ignorespaces \relax \fontsize  {10.95}{13.6}\selectfont  \abovedisplayskip 11\p@ plus3\p@ minus6\p@ \abovedisplayshortskip \z@ plus3\p@ \belowdisplayshortskip 6.5\p@ plus3.5\p@ minus3\p@ \def \leftmargin \leftmargini \parsep 5\p@ plus2.5\p@ minus\p@ \topsep 10\p@ plus4\p@ minus6\p@ \itemsep 5\p@ plus2.5\p@ minus\p@ {\leftmargin \leftmargini \topsep 9\p@ plus3\p@ minus5\p@ \parsep 4.5\p@ plus2\p@ minus\p@ \itemsep \parsep }\belowdisplayskip \abovedisplayskip Velocity profiles as predicted by SVM and reference simulations along the bottom edge of the AMM structure at $t=T$: (a) 300, 500, 700, 900 and 1,300 Hz, (b) 1,500, 1,800, 2,100, 2,400 and 2,700 Hz.\relax }}{25}{figure.caption.9}\protected@file@percent }
\newlabel{DispOverlineMeta}{{8}{25}{\small Velocity profiles as predicted by SVM and reference simulations along the bottom edge of the AMM structure at $t=T$: (a) 300, 500, 700, 900 and 1,300 Hz, (b) 1,500, 1,800, 2,100, 2,400 and 2,700 Hz.\relax }{figure.caption.9}{}}
\@writefile{lof}{\contentsline {figure}{\numberline {9}{\ignorespaces \relax \fontsize  {10.95}{13.6}\selectfont  \abovedisplayskip 11\p@ plus3\p@ minus6\p@ \abovedisplayshortskip \z@ plus3\p@ \belowdisplayshortskip 6.5\p@ plus3.5\p@ minus3\p@ \def \leftmargin \leftmargini \parsep 5\p@ plus2.5\p@ minus\p@ \topsep 10\p@ plus4\p@ minus6\p@ \itemsep 5\p@ plus2.5\p@ minus\p@ {\leftmargin \leftmargini \topsep 9\p@ plus3\p@ minus5\p@ \parsep 4.5\p@ plus2\p@ minus\p@ \itemsep \parsep }\belowdisplayskip \abovedisplayskip Velocity contours of the AMM structure as predicted by SVM and reference simulations at $t=T$.\relax }}{26}{figure.caption.10}\protected@file@percent }
\newlabel{AMM_Bar}{{9}{26}{\small Velocity contours of the AMM structure as predicted by SVM and reference simulations at $t=T$.\relax }{figure.caption.10}{}}
\@writefile{toc}{\contentsline {subsection}{\numberline {6.2}Reduced order spectral variational multiscale model}{26}{subsection.6.2}\protected@file@percent }
\newlabel{reduced order model results}{{6.2}{26}{Reduced order spectral variational multiscale model}{subsection.6.2}{}}
\@writefile{lof}{\contentsline {figure}{\numberline {10}{\ignorespaces \relax \fontsize  {10.95}{13.6}\selectfont  \abovedisplayskip 11\p@ plus3\p@ minus6\p@ \abovedisplayshortskip \z@ plus3\p@ \belowdisplayshortskip 6.5\p@ plus3.5\p@ minus3\p@ \def \leftmargin \leftmargini \parsep 5\p@ plus2.5\p@ minus\p@ \topsep 10\p@ plus4\p@ minus6\p@ \itemsep 5\p@ plus2.5\p@ minus\p@ {\leftmargin \leftmargini \topsep 9\p@ plus3\p@ minus5\p@ \parsep 4.5\p@ plus2\p@ minus\p@ \itemsep \parsep }\belowdisplayskip \abovedisplayskip Transmitted wave amplitude spectra for (a) phononic crystal, and (b) acoustic metamaterial. \relax }}{27}{figure.caption.11}\protected@file@percent }
\newlabel{TransmittedAmp}{{10}{27}{\small Transmitted wave amplitude spectra for (a) phononic crystal, and (b) acoustic metamaterial. \relax }{figure.caption.11}{}}
\@writefile{lof}{\contentsline {figure}{\numberline {11}{\ignorespaces \relax \fontsize  {10.95}{13.6}\selectfont  \abovedisplayskip 11\p@ plus3\p@ minus6\p@ \abovedisplayshortskip \z@ plus3\p@ \belowdisplayshortskip 6.5\p@ plus3.5\p@ minus3\p@ \def \leftmargin \leftmargini \parsep 5\p@ plus2.5\p@ minus\p@ \topsep 10\p@ plus4\p@ minus6\p@ \itemsep 5\p@ plus2.5\p@ minus\p@ {\leftmargin \leftmargini \topsep 9\p@ plus3\p@ minus5\p@ \parsep 4.5\p@ plus2\p@ minus\p@ \itemsep \parsep }\belowdisplayskip \abovedisplayskip The effect of the spectral order of coarse-scale element on the accuracy of SVM for the phononic crystal structure simulation: (a) $f=10$ kHz, and (b) $f=100$ kHz.\relax }}{27}{figure.caption.12}\protected@file@percent }
\newlabel{DispOverlinePhonoCorder}{{11}{27}{\small The effect of the spectral order of coarse-scale element on the accuracy of SVM for the phononic crystal structure simulation: (a) $f=10$ kHz, and (b) $f=100$ kHz.\relax }{figure.caption.12}{}}
\@writefile{lof}{\contentsline {figure}{\numberline {12}{\ignorespaces \relax \fontsize  {10.95}{13.6}\selectfont  \abovedisplayskip 11\p@ plus3\p@ minus6\p@ \abovedisplayshortskip \z@ plus3\p@ \belowdisplayshortskip 6.5\p@ plus3.5\p@ minus3\p@ \def \leftmargin \leftmargini \parsep 5\p@ plus2.5\p@ minus\p@ \topsep 10\p@ plus4\p@ minus6\p@ \itemsep 5\p@ plus2.5\p@ minus\p@ {\leftmargin \leftmargini \topsep 9\p@ plus3\p@ minus5\p@ \parsep 4.5\p@ plus2\p@ minus\p@ \itemsep \parsep }\belowdisplayskip \abovedisplayskip The effect of the spectral order of coarse-scale element on the accuracy of SVM for the acoustic metamaterial simulation: (a) $f=300$ Hz, and (b) $f=2,000$ Hz.\relax }}{28}{figure.caption.13}\protected@file@percent }
\newlabel{DispOverlineMetaCorder}{{12}{28}{\small The effect of the spectral order of coarse-scale element on the accuracy of SVM for the acoustic metamaterial simulation: (a) $f=300$ Hz, and (b) $f=2,000$ Hz.\relax }{figure.caption.13}{}}
\@writefile{lof}{\contentsline {figure}{\numberline {13}{\ignorespaces \relax \fontsize  {10.95}{13.6}\selectfont  \abovedisplayskip 11\p@ plus3\p@ minus6\p@ \abovedisplayshortskip \z@ plus3\p@ \belowdisplayshortskip 6.5\p@ plus3.5\p@ minus3\p@ \def \leftmargin \leftmargini \parsep 5\p@ plus2.5\p@ minus\p@ \topsep 10\p@ plus4\p@ minus6\p@ \itemsep 5\p@ plus2.5\p@ minus\p@ {\leftmargin \leftmargini \topsep 9\p@ plus3\p@ minus5\p@ \parsep 4.5\p@ plus2\p@ minus\p@ \itemsep \parsep }\belowdisplayskip \abovedisplayskip The effect of the material property contrast on the accuracy of SVM: (a) PC at $f=20$ kHz, (b) AMM at $f=2,000$ Hz.\relax }}{28}{figure.caption.14}\protected@file@percent }
\newlabel{DispOverlineContrast}{{13}{28}{\small The effect of the material property contrast on the accuracy of SVM: (a) PC at $f=20$ kHz, (b) AMM at $f=2,000$ Hz.\relax }{figure.caption.14}{}}
\@writefile{lof}{\contentsline {figure}{\numberline {14}{\ignorespaces \relax \fontsize  {10.95}{13.6}\selectfont  \abovedisplayskip 11\p@ plus3\p@ minus6\p@ \abovedisplayshortskip \z@ plus3\p@ \belowdisplayshortskip 6.5\p@ plus3.5\p@ minus3\p@ \def \leftmargin \leftmargini \parsep 5\p@ plus2.5\p@ minus\p@ \topsep 10\p@ plus4\p@ minus6\p@ \itemsep 5\p@ plus2.5\p@ minus\p@ {\leftmargin \leftmargini \topsep 9\p@ plus3\p@ minus5\p@ \parsep 4.5\p@ plus2\p@ minus\p@ \itemsep \parsep }\belowdisplayskip \abovedisplayskip Velocity profiles as predicted by RSVM with different number of modes and reference simulations along the bottom edge of the PC structure at $t=T$: (a) 10 kHz, (b) 50 kHz, (c) 100 kHz, (d) 140 kHz. \relax }}{29}{figure.caption.15}\protected@file@percent }
\newlabel{DispOverlinePhonoROM}{{14}{29}{\small Velocity profiles as predicted by RSVM with different number of modes and reference simulations along the bottom edge of the PC structure at $t=T$: (a) 10 kHz, (b) 50 kHz, (c) 100 kHz, (d) 140 kHz. \relax }{figure.caption.15}{}}
\@writefile{lof}{\contentsline {figure}{\numberline {15}{\ignorespaces \relax \fontsize  {10.95}{13.6}\selectfont  \abovedisplayskip 11\p@ plus3\p@ minus6\p@ \abovedisplayshortskip \z@ plus3\p@ \belowdisplayshortskip 6.5\p@ plus3.5\p@ minus3\p@ \def \leftmargin \leftmargini \parsep 5\p@ plus2.5\p@ minus\p@ \topsep 10\p@ plus4\p@ minus6\p@ \itemsep 5\p@ plus2.5\p@ minus\p@ {\leftmargin \leftmargini \topsep 9\p@ plus3\p@ minus5\p@ \parsep 4.5\p@ plus2\p@ minus\p@ \itemsep \parsep }\belowdisplayskip \abovedisplayskip Velocity profiles as predicted by RSVM with different number of modes and reference simulations along the bottom edge of the AMM structure at $t=T$: (a) 300 Hz, (b) 700 Hz, (c) 1,300 Hz, (d) 2,700 Hz\relax }}{30}{figure.caption.16}\protected@file@percent }
\newlabel{DispOverlineMetaROM}{{15}{30}{\small Velocity profiles as predicted by RSVM with different number of modes and reference simulations along the bottom edge of the AMM structure at $t=T$: (a) 300 Hz, (b) 700 Hz, (c) 1,300 Hz, (d) 2,700 Hz\relax }{figure.caption.16}{}}
\citation{Khelif2004}
\@writefile{lof}{\contentsline {figure}{\numberline {16}{\ignorespaces \relax \fontsize  {10.95}{13.6}\selectfont  \abovedisplayskip 11\p@ plus3\p@ minus6\p@ \abovedisplayshortskip \z@ plus3\p@ \belowdisplayshortskip 6.5\p@ plus3.5\p@ minus3\p@ \def \leftmargin \leftmargini \parsep 5\p@ plus2.5\p@ minus\p@ \topsep 10\p@ plus4\p@ minus6\p@ \itemsep 5\p@ plus2.5\p@ minus\p@ {\leftmargin \leftmargini \topsep 9\p@ plus3\p@ minus5\p@ \parsep 4.5\p@ plus2\p@ minus\p@ \itemsep \parsep }\belowdisplayskip \abovedisplayskip Velocity history of the middle point of vertical unit cell boundary at $x=0.155~m$ for phononic crystals and acoustic metamaterials with different Young's modulus contrasts at different frequencies: (a) PC at 10 kHz with $r_E=58.3$, (b) PC at 100 kHz with $r_E=58.3$, (c) PC at 10 kHz with $r_E=583$, (d) PC at 100 kHz with $r_E=583$, (e) AMM at 300 Hz with $r_E=3.5\times 10^5$, (f) AMM at 2000 Hz with $r_E=3.5\times 10^5$, (g) AMM at 300 Hz with $r_E=3.5\times 10^6$, (h) AMM at 2000 Hz with $r_E=3.5\times 10^6$. \relax }}{31}{figure.caption.17}\protected@file@percent }
\newlabel{DispOvertime}{{16}{31}{\small Velocity history of the middle point of vertical unit cell boundary at $x=0.155~m$ for phononic crystals and acoustic metamaterials with different Young's modulus contrasts at different frequencies: (a) PC at 10 kHz with $r_E=58.3$, (b) PC at 100 kHz with $r_E=58.3$, (c) PC at 10 kHz with $r_E=583$, (d) PC at 100 kHz with $r_E=583$, (e) AMM at 300 Hz with $r_E=3.5\times 10^5$, (f) AMM at 2000 Hz with $r_E=3.5\times 10^5$, (g) AMM at 300 Hz with $r_E=3.5\times 10^6$, (h) AMM at 2000 Hz with $r_E=3.5\times 10^6$. \relax }{figure.caption.17}{}}
\@writefile{lot}{\contentsline {table}{\numberline {2}{\ignorespaces Normalized computation time of RSVM for the AMM structure simulation.\relax }}{31}{table.caption.18}\protected@file@percent }
\newlabel{MESM time for AMM}{{2}{31}{Normalized computation time of RSVM for the AMM structure simulation.\relax }{table.caption.18}{}}
\@writefile{toc}{\contentsline {subsection}{\numberline {6.3}Elastic waveguide simulation using RSVM}{32}{subsection.6.3}\protected@file@percent }
\@writefile{lof}{\contentsline {figure}{\numberline {17}{\ignorespaces \relax \fontsize  {10.95}{13.6}\selectfont  \abovedisplayskip 11\p@ plus3\p@ minus6\p@ \abovedisplayshortskip \z@ plus3\p@ \belowdisplayshortskip 6.5\p@ plus3.5\p@ minus3\p@ \def \leftmargin \leftmargini \parsep 5\p@ plus2.5\p@ minus\p@ \topsep 10\p@ plus4\p@ minus6\p@ \itemsep 5\p@ plus2.5\p@ minus\p@ {\leftmargin \leftmargini \topsep 9\p@ plus3\p@ minus5\p@ \parsep 4.5\p@ plus2\p@ minus\p@ \itemsep \parsep }\belowdisplayskip \abovedisplayskip The geometry and boundary conditions of the elastic waveguide simulation. \relax }}{32}{figure.caption.19}\protected@file@percent }
\newlabel{PC_WG}{{17}{32}{\small The geometry and boundary conditions of the elastic waveguide simulation. \relax }{figure.caption.19}{}}
\@writefile{lof}{\contentsline {figure}{\numberline {18}{\ignorespaces \relax \fontsize  {10.95}{13.6}\selectfont  \abovedisplayskip 11\p@ plus3\p@ minus6\p@ \abovedisplayshortskip \z@ plus3\p@ \belowdisplayshortskip 6.5\p@ plus3.5\p@ minus3\p@ \def \leftmargin \leftmargini \parsep 5\p@ plus2.5\p@ minus\p@ \topsep 10\p@ plus4\p@ minus6\p@ \itemsep 5\p@ plus2.5\p@ minus\p@ {\leftmargin \leftmargini \topsep 9\p@ plus3\p@ minus5\p@ \parsep 4.5\p@ plus2\p@ minus\p@ \itemsep \parsep }\belowdisplayskip \abovedisplayskip Velocity contours of wave propagation in elastic waveguide, $f=10$ kHz.\relax }}{33}{figure.caption.20}\protected@file@percent }
\newlabel{PCWaveGuide10kHz}{{18}{33}{\small Velocity contours of wave propagation in elastic waveguide, $f=10$ kHz.\relax }{figure.caption.20}{}}
\@writefile{lof}{\contentsline {figure}{\numberline {19}{\ignorespaces \relax \fontsize  {10.95}{13.6}\selectfont  \abovedisplayskip 11\p@ plus3\p@ minus6\p@ \abovedisplayshortskip \z@ plus3\p@ \belowdisplayshortskip 6.5\p@ plus3.5\p@ minus3\p@ \def \leftmargin \leftmargini \parsep 5\p@ plus2.5\p@ minus\p@ \topsep 10\p@ plus4\p@ minus6\p@ \itemsep 5\p@ plus2.5\p@ minus\p@ {\leftmargin \leftmargini \topsep 9\p@ plus3\p@ minus5\p@ \parsep 4.5\p@ plus2\p@ minus\p@ \itemsep \parsep }\belowdisplayskip \abovedisplayskip Velocity contours of wave propagation in elastic waveguide, $f=60$ kHz. \relax }}{33}{figure.caption.21}\protected@file@percent }
\newlabel{PCWaveGuide60kHz}{{19}{33}{\small Velocity contours of wave propagation in elastic waveguide, $f=60$ kHz. \relax }{figure.caption.21}{}}
\citation{Hu2017}
\citation{Nanthakumar2019}
\@writefile{lot}{\contentsline {table}{\numberline {3}{\ignorespaces Computation time in the phononic crystal waveguide simulation.\relax }}{34}{table.caption.22}\protected@file@percent }
\newlabel{Waveguide time}{{3}{34}{Computation time in the phononic crystal waveguide simulation.\relax }{table.caption.22}{}}
\@writefile{toc}{\contentsline {section}{\numberline {7}Conclusion}{34}{section.7}\protected@file@percent }
\citation{Lautersztajn1998}
\citation{Lautersztajn1998}
\@writefile{toc}{\contentsline {section}{Appendices}{36}{section*.24}\protected@file@percent }
\@writefile{toc}{\contentsline {section}{Appendix \numberline {A}Inverse isoparametric mapping}{36}{Appendix.a.A}\protected@file@percent }
\newlabel{inverse isoparametric mapping}{{A}{36}{Inverse isoparametric mapping}{Appendix.a.A}{}}
\newlabel{isoparametric mapping}{{A.1}{36}{Inverse isoparametric mapping}{equation.a.A.1}{}}
\newlabel{a0123}{{A.2}{36}{Inverse isoparametric mapping}{equation.a.A.2}{}}
\newlabel{geodesic}{{A.3}{36}{Inverse isoparametric mapping}{equation.a.A.3}{}}
\newlabel{xibar}{{A.4}{36}{Inverse isoparametric mapping}{equation.a.A.4}{}}
\newlabel{alpha gamma}{{A.5}{36}{Inverse isoparametric mapping}{equation.a.A.5}{}}
\newlabel{isoparametric mapping geodesic}{{A.6}{37}{Inverse isoparametric mapping}{equation.a.A.6}{}}
\bibstyle{Referenceformat}
\bibcite{Arbogast2002}{{1}{2002}{{Arbogast}}{{}}}
\bibcite{Asokan2006}{{2}{2006}{{Asokan and Zabaras}}{{}}}
\bibcite{Babuska1990}{{3}{1990}{{Babu{\v {s}}ka and Suri}}{{}}}
\bibcite{Boutin1993}{{4}{1993}{{Boutin and Auriault}}{{}}}
\bibcite{Brule2014}{{5}{2014}{{Br{\^u}l{\'e} et~al.}}{{}}}
\bibcite{Casadei2013}{{6}{2013}{{Casadei et~al.}}{{}}}
\bibcite{Casadei2016}{{7}{2016}{{Casadei et~al.}}{{}}}
\bibcite{Castanier2001}{{8}{2001}{{Castanier et~al.}}{{}}}
\bibcite{Colombi2016}{{9}{2016}{{Colombi et~al.}}{{}}}
\bibcite{Craig1968}{{10}{1968}{{Craig and Bampton}}{{}}}
\bibcite{Deraemaeker1999}{{11}{1999}{{Deraemaeker et~al.}}{{}}}
\bibcite{Fafalis2015}{{12}{2015}{{Fafalis and Fish}}{{}}}
\bibcite{Filonova2016}{{13}{2016}{{Filonova et~al.}}{{}}}
\bibcite{Fish2007}{{14}{2007}{{Fish and Belytschko}}{{}}}
\bibcite{Fish2002}{{15}{2002}{{Fish et~al.}}{{}}}
\bibcite{Fish2010}{{16}{2010}{{Fish and Kuznetsov}}{{}}}
\bibcite{Ganapathysubramanian2007}{{17}{2007}{{Ganapathysubramanian and Zabaras}}{{}}}
\bibcite{Garikipati1998}{{18}{1998}{{Garikipati and Hughes}}{{}}}
\bibcite{Garikipati2000}{{19}{2000}{{Garikipati and Hughes}}{{}}}
\bibcite{Goudreau1973}{{20}{1973}{{Goudreau and Taylor}}{{}}}
\bibcite{Hong2013}{{21}{2013}{{Hong et~al.}}{{}}}
\bibcite{Hou1997}{{22}{1997}{{Hou and Wu}}{{}}}
\bibcite{Hu2017a}{{23}{2017}{{Hu and Oskay}}{{}}}
\bibcite{Hu2018}{{24}{2018}{{Hu and Oskay}}{{}}}
\bibcite{Hu2019}{{25}{2019}{{Hu and Oskay}}{{}}}
\bibcite{Hu2017}{{26}{2017}{{Hu et~al.}}{{}}}
\bibcite{Hughes2000}{{27}{2000}{{Hughes}}{{}}}
\bibcite{Hughes1998}{{28}{1998}{{Hughes et~al.}}{{}}}
\bibcite{Hui2014}{{29}{2014}{{Hui and Oskay}}{{}}}
\bibcite{Hui2015}{{30}{2015}{{Hui and Oskay}}{{}}}
\bibcite{Hussein2009}{{31}{2009}{{Hussein}}{{}}}
\bibcite{Ihlenburg1995}{{32}{1995{}}{{Ihlenburg and Babu{\v {s}}ka}}{{}}}
\bibcite{Ihlenburg1995a}{{33}{1995{}}{{Ihlenburg and Babu{\v {s}}ka}}{{}}}
\bibcite{Ihlenburg1997}{{34}{1997}{{Ihlenburg and Babuska}}{{}}}
\bibcite{Kaina2015}{{35}{2015}{{Kaina et~al.}}{{}}}
\bibcite{Khelif2004}{{36}{2004}{{Khelif et~al.}}{{}}}
\bibcite{Krattiger2018}{{37}{2018}{{Krattiger and Hussein}}{{}}}
\bibcite{Lautersztajn1997}{{38}{1997}{{Lautersztajn-S and Samuelsson}}{{}}}
\bibcite{Lautersztajn1998}{{39}{1998}{{Lautersztajn-S and Samuelsson}}{{}}}
\bibcite{Li2009}{{40}{2009}{{Li et~al.}}{{}}}
\bibcite{Liu2017}{{41}{2017}{{Liu and Reina}}{{}}}
\bibcite{Liu2018}{{42}{2018}{{Liu and Reina}}{{}}}
\bibcite{Liu2000}{{43}{2000}{{Liu et~al.}}{{}}}
\bibcite{Ma2016}{{44}{2016}{{Ma and Sheng}}{{}}}
\bibcite{Maldovan2013}{{45}{2013}{{Maldovan}}{{}}}
\bibcite{Masud2004}{{46}{2004}{{Masud and Khurram}}{{}}}
\bibcite{Masud2006}{{47}{2006}{{Masud and Xia}}{{}}}
\bibcite{Meng2018}{{48}{2018}{{Meng and Guzina}}{{}}}
\bibcite{Milton2007}{{49}{2007}{{Milton and Willis}}{{}}}
\bibcite{Mousavi2015}{{50}{2015}{{Mousavi et~al.}}{{}}}
\bibcite{Nanthakumar2019}{{51}{2019}{{Nanthakumar et~al.}}{{}}}
\bibcite{Nassar2016a}{{52}{2016}{{Nassar et~al.}}{{}}}
\bibcite{Nemat-Nasser2011}{{53}{2011}{{Nemat-Nasser and Srivastava}}{{}}}
\bibcite{Oberai1998}{{54}{1998}{{Oberai and Pinsky}}{{}}}
\bibcite{Oskay2012}{{55}{2012}{{Oskay}}{{}}}
\bibcite{Oskay2013}{{56}{2013}{{Oskay}}{{}}}
\bibcite{Pham2013}{{57}{2013}{{Pham et~al.}}{{}}}
\bibcite{Rathod2000}{{58}{2000}{{Rathod and Kilari}}{{}}}
\bibcite{Rathod2001}{{59}{2001}{{Rathod and Sridevi}}{{}}}
\bibcite{Roca2018}{{60}{2018}{{Roca et~al.}}{{}}}
\bibcite{Roca2019}{{61}{2019}{{Roca et~al.}}{{}}}
\bibcite{Sridhar2016}{{62}{2016}{{Sridhar et~al.}}{{}}}
\bibcite{Sridhar2018}{{63}{2018}{{Sridhar et~al.}}{{}}}
\bibcite{Stenger2012}{{64}{2012}{{Stenger et~al.}}{{}}}
\bibcite{Thompson1994}{{65}{1994}{{Thompson and Pinsky}}{{}}}
\bibcite{Truster2014}{{66}{2014}{{Truster and Masud}}{{}}}
\bibcite{Willis1997}{{67}{1997}{{Willis}}{{}}}
\bibcite{Yu2018}{{68}{2018}{{Yu et~al.}}{{}}}
\bibcite{Yuan1994}{{69}{1994}{{Yuan et~al.}}{{}}}
\bibcite{Zhang2015}{{70}{2015}{{Zhang and Oskay}}{{}}}
\bibcite{Zhang2016}{{71}{2016}{{Zhang and Oskay}}{{}}}
\bibcite{Zhang2017}{{72}{2017}{{Zhang and Oskay}}{{}}}
